Essentials for Web Scrapping with R
…
[[4]]
# A tibble: 1 × 9
  Name  Designation        Divis…¹ Telep…² Telep…³ Inter…⁴ Room …⁵ Addre…⁶ Email
  <chr> <chr>              <lgl>   <lgl>   <lgl>   <lgl>   <lgl>   <lgl>   <lgl>
1 .     Additional Secret… NA      NA      NA      NA      NA      NA      NA   
# … with abbreviated variable names ¹​`Division/section`, ²​`Telephone (Office)`,
#   ³​`Telephone(Residence)`, ⁴​`Intercom No.`, ⁵​`Room No.`,
#   ⁶​`Address(Residence)`

[[5]]
# A tibble: 21 × 9
   Name            Desig…¹ Divis…² Telep…³ Telep…⁴ Inter…⁵ Room …⁶ Addre…⁷ Email
   <chr>           <chr>   <chr>   <chr>     <dbl> <chr>   <chr>   <chr>   <chr>
 1 Smt.Annie G. M… Specia… Person… 011-23… NA      5648    39-A, … "Bunga… "mat…
 2 Smt. Sudha Raj… PSO to… Person… 011-23… NA      5648    36, No… ""      "Sud…
 3 Ms. Divya Alat… Direct… Admin   230926… NA      5693    168-C,… ""      "div…
 4 Shri Shyam Kis… Sr. PP… Admin   011-23… NA      5616    169-A,… ""      "kis…
 5 Shri S.N. Rana  Under … GAD/Co… 011-23… NA      5665    56A, N… ""      "ran…
 6 Shri Pravin Ku… Under … Admn.   230957… NA      5722    225E, … ""      ""   
 7 Sh. Ranjit Kum… Under … Admin/… 011-23… NA      5695    225-E,… ""      "ran…
 8 Sh. Ravi Kumar  SO      GAD     230956… NA      5621, … 56A, N… ""      ""   
 9 Sh. Pijush Moh… Under … Vigila… 230956…  9.54e9 5656    231 No… "32-A,… "pij…
10 Shri Rajeshwar… Deputy… Offici… 011-23… NA      5620    261, N… ""      "raj…
# … with 11 more rows, and abbreviated variable names ¹​Designation,
#   ²​`Division/section`, ³​`Telephone (Office)`, ⁴​`Telephone(Residence)`,
#   ⁵​`Intercom No.`, ⁶​`Room No.`, ⁷​`Address(Residence)`
# ℹ Use `print(n = ...)` to see more rows

[[6]]
# A tibble: 34 × 9
   Name            Desig…¹ Divis…² Telep…³ Telep…⁴ Inter…⁵ Room …⁶ Addre…⁷ Email
   <chr>           <chr>   <chr>   <chr>   <lgl>     <int> <chr>   <chr>   <chr>
 1 Smt..Annie G. … Specia… Person… 230932… NA         5648 39-A, … "Bunga… "mat…
 2 Smt. Sudha Raj… PSO to… Person… 011-23… NA         5648 36 Nor… ""      "Sud…
 3 Sh. THANGLEMLI… Joint … E.Coor… 230932… NA         5690 74 -B/… ""      "THA…
 4 Smt. Nirmala D… Direct… EG      230932… NA         5623 37, NB  ""      "n[d…
 5 Sh. Avinash K … Deputy… E.II -A 230926… NA         5609 48 -E,… ""      "avi…
 6 Sh. Umesh Kuma… Deputy… E. III… 011-23… NA         5667 225-D,… ""      "uk[…
 7 Sh. B. Sengupta D.S.    E.III-… 230927… NA         5723 76 -A/… ""      ""   
 8 Shri Ram Gopal  Deputy… E.III B 230922… NA         5726 30A, N… ""      ""   
 9 Sh. B.K. Manth… D.S.    E.Coor… 230945… NA         5669 74-C N… ""      ""   
10 Shri R.D.Taluk… Direct… E-III … 246279… NA           NA 502/LNB ""      ""   
# … with 24 more rows, and abbreviated variable names ¹​Designation,
#   ²​`Division/section`, ³​`Telephone (Office)`, ⁴​`Telephone(Residence)`,
#   ⁵​`Intercom No.`, ⁶​`Room No.`, ⁷​`Address(Residence)`
# ℹ Use `print(n = ...)` to see more rows
…
[[8]]
# A tibble: 21 × 9
   Name           Desig…¹ Divis…² Telep…³ Teleph…⁴ Inter…⁵ Room …⁶ Addre…⁷ Email
   <chr>          <chr>   <chr>   <chr>      <dbl> <chr>   <chr>   <chr>   <chr>
 1 Shri Amit Sin… Joint … "PFC-I" 230948… NA       "5652"  "142-B… ""      negi…
 2 Shri Rajesh D… PPS to… "PFC.I" 011-23… NA       "5679"  "166-E… ""      raje…
 3 Mrs. Kavita M… PPS     "PFC.I" 011-23… NA       "5679"  "166 E… "EA-25… m[do…
 4 Shri M K Sahoo Adviser ""      011-24… NA       ""      "504, … ""      mksa…
 5 Sh. Rana Muke… PS to … ""      011-24… NA       ""      ""      ""      rana…
 6 Shri Sushobha… SSO     "O/o A… 011-24…  9.20e11 ""      "505, … ""      s[do…
 7 Sh. L.K. Triv… Direct… "PFC.I" 230933… NA       "5642"  "264 C… ""      lk[d…
 8 Ms Swayamprav… Direct… "PFC.I" 230926… NA       "5636"  "225-C… ""      sway…
 9 Sh. Prateek K… Direct… "PFC.I" 230949… NA       "5660"  "76, N… ""      prat…
10 P. Parthiban   Deputy… "PFC I" 011230… NA       "5645"  "167 B… ""      p[do…
# … with 11 more rows, and abbreviated variable names ¹​Designation,
#   ²​`Division/section`, ³​`Telephone (Office)`, ⁴​`Telephone(Residence)`,
#   ⁵​`Intercom No.`, ⁶​`Room No.`, ⁷​`Address(Residence)`
# ℹ Use `print(n = ...)` to see more rows
…
